TestNumber    X    Y    Z   RX   RY   RZ NumBlocks  B0          B1          B2          B3          B4          B5          B6          B7          B8          B9          B10         B11         B12         B13         B14         B15         
    1        -4    0    2    9   -6    8        10     1   1   1   1   2   1   1   3   1   1   4   1   2   4   1   3   4   1   1   1   2   1   1   3   1   1   4   0   1   4
    2        -4    0    2    7   52    7        10     1   1   1   1   2   1   1   3   1   1   4   1   2   4   1   3   4   1   1   1   2   1   1   3   1   1   4   0   1   4
    3        -4    0    2  -10   80   -9        10     1   1   1   1   2   1   1   3   1   1   4   1   2   4   1   3   4   1   1   1   2   1   1   3   1   1   4   0   1   4
    4        -4    0    2  -10  129   10        10     1   1   1   1   2   1   1   3   1   1   4   1   2   4   1   3   4   1   1   1   2   1   1   3   1   1   4   0   1   4
    5        -4    0    2  -10  186    8        10     1   1   1   1   2   1   1   3   1   1   4   1   2   4   1   3   4   1   1   1   2   1   1   3   1   1   4   0   1   4
    6        -4    0    2    9  231    7        10     1   1   1   1   2   1   1   3   1   1   4   1   2   4   1   3   4   1   1   1   2   1   1   3   1   1   4   0   1   4
    7        -4    0    2  -10  263   -8        10     1   1   1   1   2   1   1   3   1   1   4   1   2   4   1   3   4   1   1   1   2   1   1   3   1   1   4   0   1   4
    8        -4    0    2   -9  322   -6        10     1   1   1   1   2   1   1   3   1   1   4   1   2   4   1   3   4   1   1   1   2   1   1   3   1   1   4   0   1   4
    9        -4    0    2   10    7    9        10     0   0   0   0   1   0   0   2   0   0   3   0  -1   3   0  -2   3   0   0   0   1   0   0   2   0   0   3   0  -1   3
   10        -4    0    2  -10   35    7        10     0   0   0   0   1   0   0   2   0   0   3   0  -1   3   0  -2   3   0   0   0   1   0   0   2   0   0   3   0  -1   3
   11        -4    0    2    7   84   -6        10     0   0   0   0   1   0   0   2   0   0   3   0  -1   3   0  -2   3   0   0   0   1   0   0   2   0   0   3   0  -1   3
   12        -4    0    2   -7  144    9        10     0   0   0   0   1   0   0   2   0   0   3   0  -1   3   0  -2   3   0   0   0   1   0   0   2   0   0   3   0  -1   3
   13        -4    0    2  -10  188  -10        10     0   0   0   0   1   0   0   2   0   0   3   0  -1   3   0  -2   3   0   0   0   1   0   0   2   0   0   3   0  -1   3
   14        -4    0    2    6  219   -6        10     0   0   0   0   1   0   0   2   0   0   3   0  -1   3   0  -2   3   0   0   0   1   0   0   2   0   0   3   0  -1   3
   15        -4    0    2    7  264    7        10     0   0   0   0   1   0   0   2   0   0   3   0  -1   3   0  -2   3   0   0   0   1   0   0   2   0   0   3   0  -1   3
   16        -4    0    2   -8  322    9        10     0   0   0   0   1   0   0   2   0   0   3   0  -1   3   0  -2   3   0   0   0   1   0   0   2   0   0   3   0  -1   3
   17        -4    0    2    9   -8   -8        10     0   0   0   0   1   0   0   2   0   0   0   1   0   0   2   0   0   3   1   0   3   2   0   3   2  -1   3   2  -2   3
   18        -4    0    2  -10   38   -7        10     0   0   0   0   1   0   0   2   0   0   0   1   0   0   2   0   0   3   1   0   3   2   0   3   2  -1   3   2  -2   3
   19        -4    0    2  -10   84    9        10     0   0   0   0   1   0   0   2   0   0   0   1   0   0   2   0   0   3   1   0   3   2   0   3   2  -1   3   2  -2   3
   20        -4    0    2   10  127   -8        10     0   0   0   0   1   0   0   2   0   0   0   1   0   0   2   0   0   3   1   0   3   2   0   3   2  -1   3   2  -2   3
   21        -4    0    2    6  189   -7        10     0   0   0   0   1   0   0   2   0   0   0   1   0   0   2   0   0   3   1   0   3   2   0   3   2  -1   3   2  -2   3
   22        -4    0    2  -10  216    8        10     0   0   0   0   1   0   0   2   0   0   0   1   0   0   2   0   0   3   1   0   3   2   0   3   2  -1   3   2  -2   3
   23        -4    0    2   -8  261    9        10     0   0   0   0   1   0   0   2   0   0   0   1   0   0   2   0   0   3   1   0   3   2   0   3   2  -1   3   2  -2   3
   24        -4    0    2  -10  305   -8        10     0   0   0   0   1   0   0   2   0   0   0   1   0   0   2   0   0   3   1   0   3   2   0   3   2  -1   3   2  -2   3
   25        -4    0    2    7   -7   -8        10     0   0   0   0   1   0   0   2   0   1   0   0   2   0   0   3   0   0   3  -1   0   3  -2   0   3  -2  -1   3  -2  -2
   26        -4    0    2   -7   54   10        10     0   0   0   0   1   0   0   2   0   1   0   0   2   0   0   3   0   0   3  -1   0   3  -2   0   3  -2  -1   3  -2  -2
   27        -4    0    2    9  100    7        10     0   0   0   0   1   0   0   2   0   1   0   0   2   0   0   3   0   0   3  -1   0   3  -2   0   3  -2  -1   3  -2  -2
   28        -4    0    2    9  144    6        10     0   0   0   0   1   0   0   2   0   1   0   0   2   0   0   3   0   0   3  -1   0   3  -2   0   3  -2  -1   3  -2  -2
   29        -4    0    2    8  173    8        10     0   0   0   0   1   0   0   2   0   1   0   0   2   0   0   3   0   0   3  -1   0   3  -2   0   3  -2  -1   3  -2  -2
   30        -4    0    2   10  219   -9        10     0   0   0   0   1   0   0   2   0   1   0   0   2   0   0   3   0   0   3  -1   0   3  -2   0   3  -2  -1   3  -2  -2
   31        -4    0    2   -9  262   -9        10     0   0   0   0   1   0   0   2   0   1   0   0   2   0   0   3   0   0   3  -1   0   3  -2   0   3  -2  -1   3  -2  -2
   32        -4    0    2    7  325   -6        10     0   0   0   0   1   0   0   2   0   1   0   0   2   0   0   3   0   0   3  -1   0   3  -2   0   3  -2  -1   3  -2  -2
   33        -4    0    2   -6    7  -10        10     0   0   0   0   0   1   0   0   2   0   1   0   0   2   0   0   3   0   1   3   0   2   3   0   2   4   0   2   5   0
   34        -4    0    2   -7   36    9        10     0   0   0   0   0   1   0   0   2   0   1   0   0   2   0   0   3   0   1   3   0   2   3   0   2   4   0   2   5   0
   35        -4    0    2   -6   83   -8        10     0   0   0   0   0   1   0   0   2   0   1   0   0   2   0   0   3   0   1   3   0   2   3   0   2   4   0   2   5   0
   36        -4    0    2   10  144    9        10     0   0   0   0   0   1   0   0   2   0   1   0   0   2   0   0   3   0   1   3   0   2   3   0   2   4   0   2   5   0
   37        -4    0    2   -9  171    6        10     0   0   0   0   0   1   0   0   2   0   1   0   0   2   0   0   3   0   1   3   0   2   3   0   2   4   0   2   5   0
   38        -4    0    2  -10  233    8        10     0   0   0   0   0   1   0   0   2   0   1   0   0   2   0   0   3   0   1   3   0   2   3   0   2   4   0   2   5   0
   39        -4    0    2   10  264   -9        10     0   0   0   0   0   1   0   0   2   0   1   0   0   2   0   0   3   0   1   3   0   2   3   0   2   4   0   2   5   0
   40        -4    0    2    8  321   10        10     0   0   0   0   0   1   0   0   2   0   1   0   0   2   0   0   3   0   1   3   0   2   3   0   2   4   0   2   5   0
   41        -4    0    2    7   -7    9        10     1   1   1   1   2   1   1   3   1   1   4   1   2   4   1   3   4   1   1   1   2   1   1   3   1   1   4   0   1   4
   42        -4    0    2    8   38  -10        10     1   1   1   1   2   1   1   3   1   1   4   1   2   4   1   3   4   1   1   1   2   1   1   3   1   1   4   0   1   4
   43        -4    0    2    6  100    8        10     1   1   1   1   2   1   1   3   1   1   4   1   2   4   1   3   4   1   1   1   2   1   1   3   1   1   4   0   1   4
   44        -4    0    2   -6  128   10        10     1   1   1   1   2   1   1   3   1   1   4   1   2   4   1   3   4   1   1   1   2   1   1   3   1   1   4   0   1   4
   45        -4    0    2   -6  171    8        10     1   1   1   1   2   1   1   3   1   1   4   1   2   4   1   3   4   1   1   1   2   1   1   3   1   1   4   0   1   4
   46        -4    0    2   -9  216    7        10     1   1   1   1   2   1   1   3   1   1   4   1   2   4   1   3   4   1   1   1   2   1   1   3   1   1   4   0   1   4
   47        -4    0    2   -9  263    7        10     1   1   1   1   2   1   1   3   1   1   4   1   2   4   1   3   4   1   1   1   2   1   1   3   1   1   4   0   1   4
   48        -4    0    2   -8  306   -7        10     1   1   1   1   2   1   1   3   1   1   4   1   2   4   1   3   4   1   1   1   2   1   1   3   1   1   4   0   1   4
   49        -4    0    2  -10   -9    9        10     0   0   0   0   1   0   0   2   0   0   3   0  -1   3   0  -2   3   0   0   0   1   0   0   2   0   0   3   0  -1   3
   50        -4    0    2    7   54   -9        10     0   0   0   0   1   0   0   2   0   0   3   0  -1   3   0  -2   3   0   0   0   1   0   0   2   0   0   3   0  -1   3
   51        -4    0    2    7  100   10        10     0   0   0   0   1   0   0   2   0   0   3   0  -1   3   0  -2   3   0   0   0   1   0   0   2   0   0   3   0  -1   3
   52        -4    0    2    6  125    9        10     0   0   0   0   1   0   0   2   0   0   3   0  -1   3   0  -2   3   0   0   0   1   0   0   2   0   0   3   0  -1   3
   53        -4    0    2    8  174   10        10     0   0   0   0   1   0   0   2   0   0   3   0  -1   3   0  -2   3   0   0   0   1   0   0   2   0   0   3   0  -1   3
   54        -4    0    2    6  217   -9        10     0   0   0   0   1   0   0   2   0   0   3   0  -1   3   0  -2   3   0   0   0   1   0   0   2   0   0   3   0  -1   3
   55        -4    0    2    8  261    6        10     0   0   0   0   1   0   0   2   0   0   3   0  -1   3   0  -2   3   0   0   0   1   0   0   2   0   0   3   0  -1   3
   56        -4    0    2    8  307   10        10     0   0   0   0   1   0   0   2   0   0   3   0  -1   3   0  -2   3   0   0   0   1   0   0   2   0   0   3   0  -1   3
   57        -4    0    2   -6    9   -9        10     0   0   0   0   1   0   0   2   0   0   0   1   0   0   2   0   0   3   1   0   3   2   0   3   2  -1   3   2  -2   3
   58        -4    0    2    8   55   -7        10     0   0   0   0   1   0   0   2   0   0   0   1   0   0   2   0   0   3   1   0   3   2   0   3   2  -1   3   2  -2   3
   59        -4    0    2   -6   81  -10        10     0   0   0   0   1   0   0   2   0   0   0   1   0   0   2   0   0   3   1   0   3   2   0   3   2  -1   3   2  -2   3
   60        -4    0    2   -7  125    6        10     0   0   0   0   1   0   0   2   0   0   0   1   0   0   2   0   0   3   1   0   3   2   0   3   2  -1   3   2  -2   3
   61        -4    0    2   -6  172   -7        10     0   0   0   0   1   0   0   2   0   0   0   1   0   0   2   0   0   3   1   0   3   2   0   3   2  -1   3   2  -2   3
   62        -4    0    2    8  217  -10        10     0   0   0   0   1   0   0   2   0   0   0   1   0   0   2   0   0   3   1   0   3   2   0   3   2  -1   3   2  -2   3
   63        -4    0    2   -7  262   -6        10     0   0   0   0   1   0   0   2   0   0   0   1   0   0   2   0   0   3   1   0   3   2   0   3   2  -1   3   2  -2   3
   64        -4    0    2   10  309   -7        10     0   0   0   0   1   0   0   2   0   0   0   1   0   0   2   0   0   3   1   0   3   2   0   3   2  -1   3   2  -2   3
   65        -4    0    2   -7  -10    6        10     0   0   0   0   1   0   0   2   0   1   0   0   2   0   0   3   0   0   3  -1   0   3  -2   0   3  -2  -1   3  -2  -2
   66        -4    0    2    7   55   -6        10     0   0   0   0   1   0   0   2   0   1   0   0   2   0   0   3   0   0   3  -1   0   3  -2   0   3  -2  -1   3  -2  -2
   67        -4    0    2    9   82  -10        10     0   0   0   0   1   0   0   2   0   1   0   0   2   0   0   3   0   0   3  -1   0   3  -2   0   3  -2  -1   3  -2  -2
   68        -4    0    2    7  128  -10        10     0   0   0   0   1   0   0   2   0   1   0   0   2   0   0   3   0   0   3  -1   0   3  -2   0   3  -2  -1   3  -2  -2
   69        -4    0    2   -6  190   -9        10     0   0   0   0   1   0   0   2   0   1   0   0   2   0   0   3   0   0   3  -1   0   3  -2   0   3  -2  -1   3  -2  -2
   70        -4    0    2    9  218    8        10     0   0   0   0   1   0   0   2   0   1   0   0   2   0   0   3   0   0   3  -1   0   3  -2   0   3  -2  -1   3  -2  -2
   71        -4    0    2   -6  262    8        10     0   0   0   0   1   0   0   2   0   1   0   0   2   0   0   3   0   0   3  -1   0   3  -2   0   3  -2  -1   3  -2  -2
   72        -4    0    2    7  305   -9        10     0   0   0   0   1   0   0   2   0   1   0   0   2   0   0   3   0   0   3  -1   0   3  -2   0   3  -2  -1   3  -2  -2
   73        -4    0    2   -8    7   -8        10     0   0   0   0   0   1   0   0   2   0   1   0   0   2   0   0   3   0   1   3   0   2   3   0   2   4   0   2   5   0
   74        -4    0    2    9   39  -10        10     0   0   0   0   0   1   0   0   2   0   1   0   0   2   0   0   3   0   1   3   0   2   3   0   2   4   0   2   5   0
   75        -4    0    2    7   98   -7        10     0   0   0   0   0   1   0   0   2   0   1   0   0   2   0   0   3   0   1   3   0   2   3   0   2   4   0   2   5   0
   76        -4    0    2   10  126   -6        10     0   0   0   0   0   1   0   0   2   0   1   0   0   2   0   0   3   0   1   3   0   2   3   0   2   4   0   2   5   0
   77        -4    0    2   -9  190    9        10     0   0   0   0   0   1   0   0   2   0   1   0   0   2   0   0   3   0   1   3   0   2   3   0   2   4   0   2   5   0
   78        -4    0    2   -7  215    6        10     0   0   0   0   0   1   0   0   2   0   1   0   0   2   0   0   3   0   1   3   0   2   3   0   2   4   0   2   5   0
   79        -4    0    2   -9  260    6        10     0   0   0   0   0   1   0   0   2   0   1   0   0   2   0   0   3   0   1   3   0   2   3   0   2   4   0   2   5   0
   80        -4    0    2  -10  323   10        10     0   0   0   0   0   1   0   0   2   0   1   0   0   2   0   0   3   0   1   3   0   2   3   0   2   4   0   2   5   0
