TestNumber	X	Y	Z	RX     	RY      	RZ		NumBlock     B1       B2       B3       B4       B5       B6       B7       B8       B9       B10       B11       B12        B13       B14       B15       B16
     1		4    0    2   -18       -119     -26		10            1 1 1    1 2 1     1 3 1    1 4 1  2 4 1    3 4 1    1 1 2    1 1 3    1 1 4    0 1 4	
     2		 -4    0    -2    -10      20     0		10            0 0 0    0 1 0     0 2 0    0 3 0  -1 3 0  -2 3 0   0 0 1    0 0 2    0 0 3    1 0 3
     3		4    0    2     20      -15     0		10            1 1 1    1 2 1     1 3 1    1 4 1  2 4 1    3 4 1    1 1 2    1 1 3    1 1 4    0 1 4
     4		 -4    0    -2   -8       -59     26		10            0 0 0    0 1 0     0 2 0    0 3 0  -1 3 0  -2 3 0   0 0 1    0 0 2    0 0 3    1 0 3
     5    	 	 4    0    2   11      -162     -15		10            0 0 0    0 1 0     0 2 0    0 3 0  -1 3 0  -2 3 0   0 0 1    0 0 2    0 0 3    0 -1 3
     6 		-4    0    -2   -1       -96    6		10            0 0 0    0 1 0     0 2 0    0 3 0   1 3 0    2 3 0   0 0 1    0 0 2    0 0 3    0 -1 3
     7		4    0    2   -20       95     -20		10            0 0 0    0 1 0     0 2 0    0 3 0  -1 3 0  -2 3 0   0 0 1    0 0 2    0 0 3    0 -1 3
     8		-4   0    -2    13       -15     15 		10            0 0 0    0 1 0     0 2 0    0 3 0   1 3 0    2 3 0   0 0 1    0 0 2    0 0 3    0 -1 3
     9    	 	4    0    2    11       -129     -11 		10            0 0 0    0 1 0     0 2 0    0 0 1   0 0 2    0 0 3   -1 0 3  -2 0 3   -2 -1 3  -2 -2 3
     10 		-4    0    -2    7       18     3		10            0 0 0    0 1 0     0 2 0    0 0 1   0 0 2    0 0 3   1 0 3     2 0 3   2 -1 3   2 -2 3
     11		4      0    2      9      -130     7	 	10            0 0 0    0 1 0     0 2 0    1 0 0   2 0 0    3 0 0   3 -1 0    3 -2 0  3 -2 -1 3 -2 -2
     12		-4      0    -2     20   -9     -5		10            1 1 1    1 2 1     1 3 1    1 4 1  2 4 1    3 4 1    1 1 2    1 1 3    1 1 4    0 1 4
     13    	 	4    0    2    24       -15     -8 		10            0 0 0    0 1 0     0 2 0    0 0 1   0 0 2    0 0 3   -1 0 3  -2 0 3   -2 -1 3  -2 -2 3
     14 		-4    0    -2    35       -158     -5		10            0 0 0    0 1 0     0 2 0    0 0 1   0 0 2    0 0 3   1 0 3     2 0 3   2 -1 3   2 -2 3
     15		4    0    2   15       130     7		10            0 0 0    0 0 -1   0 0 -2   0 1 0   0 2 0    0 3 0   1 3 0      2 3 0    2 4 0   2 5 0 
     16		-4    0    -2   -13       -167     0		10            0 0 0    0 0 1    0 0 2    0 1 0   0 2 0    0 3 0   1 3 0      2 3 0    2 4 0   2 5 0
     17		4    0    2      10       174     8 		10            0 0 0    0 0 -1   0 0 -2   0 1 0   0 2 0    0 3 0   1 3 0      2 3 0    2 4 0   2 5 0
     18		-4    0    -2      -28     75     -3		10            0 0 0    0 0 1    0 0 2    0 1 0   0 2 0    0 3 0   1 3 0      2 3 0    2 4 0   2 5 0
     19		4    0    2        -6       95    20 		10            0 0 0    0 1 0     0 2 0    1 0 0   2 0 0    3 0 0   3 -1 0    3 -2 0  3 -2 1 3 -2 2
     20		-4    0    -2        -2       -73       5		10            0 0 0    0 1 0     0 2 0    1 0 0   2 0 0    3 0 0   3 -1 0    3 -2 0  3 -2 -1 3 -2 -2
     21		4    0    2         4       65   14		10            0 0 0    0 1 0     0 2 0    1 0 0   2 0 0    3 0 0   3 -1 0    3 -2 0  3 -2 1  3 -2 2 
     22		-4    0    -2       14       154      -4 		10            0 0 0    0 1 0     0 2 0    0 0 1   0 0 2    0 0 3   0 -1 3    0 -2 3   1 -2 3  2 -2 3
     23		4    0    2          0       120       -30		10            0 0 0    0 1 0     0 2 0    0 3 0  -1 3 0  -2 3 0   0 0 1    0 0 2    0 0 3    0 -1 3
     24		-4    0    -2         17      78       -7		10            0 0 0    0 1 0     0 2 0    0 0 1   0 0 2    0 0 3   1 0 3     2 0 3   2 -1 3   2 -2 3 