Cubic ID      X    Y    Z   RX   RY   RZ   NumBlocks   1   2   3   4   5   6   7   8   9  10  11  12  13  14  15  16  17  18  19  20  21  22  23  24  25  26  27  28  29  30
    4       0.7  0.0  2.0    6   -9   10          10   0   0   0   0   0   1   0   0   2   0   1   0   0   2   0   0   3   0   1   3   0   2   3   0   2   4   0   2   5   0
    0       0.7  0.0  2.0   10    8   -7          10   1   1   1   1   2   1   1   3   1   1   4   1   2   4   1   3   4   1   1   1   2   1   1   3   1   1   4   0   1   4
    9       0.7  0.0  2.0    7   -7   -6          10   0   0   0   0   0  -1   0   0  -2   0   1   0   0   2   0   0   3   0   1   3   0   2   3   0   2   4   0   2   5   0
    2       0.7  0.0  2.0   -7   -8  -10          10   0   0   0   0   1   0   0   2   0   0   0   1   0   0   2   0   0   3   1   0   3   2   0   3   2  -1   3   2  -2   3
    3       0.7  0.0  2.0  -10    6   -7          10   0   0   0   0   1   0   0   2   0   1   0   0   2   0   0   3   0   0   3  -1   0   3  -2   0   3  -2  -1   3  -2  -2
    2       0.7  0.0  2.0    7   -8    9          10   0   0   0   0   1   0   0   2   0   0   0   1   0   0   2   0   0   3   1   0   3   2   0   3   2  -1   3   2  -2   3
    7       0.7  0.0  2.0    7   10   -6          10   0   0   0   0   1   0   0   2   0   0   0   1   0   0   2   0   0   3  -1   0   3  -2   0   3  -2  -1   3  -2  -2   3
    0       0.7  0.0  2.0   -8   -8    9          10   1   1   1   1   2   1   1   3   1   1   4   1   2   4   1   3   4   1   1   1   2   1   1   3   1   1   4   0   1   4
    5       0.7  0.0  2.0  -10   -9    6          10   0   0   0   0   1   0   0   2   0   0   3   0  -1   3   0  -2   3   0   0   0   1   0   0   2   0   0   3   1   0   3
    7       0.7  0.0  2.0    7    8   -8          10   0   0   0   0   1   0   0   2   0   0   0   1   0   0   2   0   0   3  -1   0   3  -2   0   3  -2  -1   3  -2  -2   3
    1       0.7  0.0  2.0  -10    8    6          10   0   0   0   0   1   0   0   2   0   0   3   0  -1   3   0  -2   3   0   0   0   1   0   0   2   0   0   3   0  -1   3
    9       0.7  0.0  2.0   -9   10   10          10   0   0   0   0   0  -1   0   0  -2   0   1   0   0   2   0   0   3   0   1   3   0   2   3   0   2   4   0   2   5   0
    2       0.7  0.0  2.0   -9  -10   -6          10   0   0   0   0   1   0   0   2   0   0   0   1   0   0   2   0   0   3   1   0   3   2   0   3   2  -1   3   2  -2   3
    3       0.7  0.0  2.0   10    8   -8          10   0   0   0   0   1   0   0   2   0   1   0   0   2   0   0   3   0   0   3  -1   0   3  -2   0   3  -2  -1   3  -2  -2
    4       0.7  0.0  2.0   -9   10    7          10   0   0   0   0   0   1   0   0   2   0   1   0   0   2   0   0   3   0   1   3   0   2   3   0   2   4   0   2   5   0
    8       0.7  0.0  2.0    7  -10    9          10   0   0   0   0   1   0   0   2   0   1   0   0   2   0   0   3   0   0   3  -1   0   3  -2   0   3  -2   1   3  -2   2
    2       0.7  0.0  2.0    8   -9   -8          10   0   0   0   0   1   0   0   2   0   0   0   1   0   0   2   0   0   3   1   0   3   2   0   3   2  -1   3   2  -2   3
    5       0.7  0.0  2.0    7   -9    9          10   0   0   0   0   1   0   0   2   0   0   3   0  -1   3   0  -2   3   0   0   0   1   0   0   2   0   0   3   1   0   3
    3       0.7  0.0  2.0   -9    7    8          10   0   0   0   0   1   0   0   2   0   1   0   0   2   0   0   3   0   0   3  -1   0   3  -2   0   3  -2  -1   3  -2  -2
    7       0.7  0.0  2.0    6   10    7          10   0   0   0   0   1   0   0   2   0   0   0   1   0   0   2   0   0   3  -1   0   3  -2   0   3  -2  -1   3  -2  -2   3
    5       0.7  0.0  2.0   10    8  -10          10   0   0   0   0   1   0   0   2   0   0   3   0  -1   3   0  -2   3   0   0   0   1   0   0   2   0   0   3   1   0   3
    2       0.7  0.0  2.0   -9    7    6          10   0   0   0   0   1   0   0   2   0   0   0   1   0   0   2   0   0   3   1   0   3   2   0   3   2  -1   3   2  -2   3
    7       0.7  0.0  2.0   -7   -6    9          10   0   0   0   0   1   0   0   2   0   0   0   1   0   0   2   0   0   3  -1   0   3  -2   0   3  -2  -1   3  -2  -2   3
    3       0.7  0.0  2.0    9    6   -7          10   0   0   0   0   1   0   0   2   0   1   0   0   2   0   0   3   0   0   3  -1   0   3  -2   0   3  -2  -1   3  -2  -2
    8       0.7  0.0  2.0    7    8   10          10   0   0   0   0   1   0   0   2   0   1   0   0   2   0   0   3   0   0   3  -1   0   3  -2   0   3  -2   1   3  -2   2
    0       0.7  0.0  2.0   -8    9   -8          10   1   1   1   1   2   1   1   3   1   1   4   1   2   4   1   3   4   1   1   1   2   1   1   3   1   1   4   0   1   4
    9       0.7  0.0  2.0   -7    6   -6          10   0   0   0   0   0  -1   0   0  -2   0   1   0   0   2   0   0   3   0   1   3   0   2   3   0   2   4   0   2   5   0
    2       0.7  0.0  2.0   -7   -6    7          10   0   0   0   0   1   0   0   2   0   0   0   1   0   0   2   0   0   3   1   0   3   2   0   3   2  -1   3   2  -2   3
    6       0.7  0.0  2.0  -10    8   -9          10   0   0   0   0   1   0   0   2   0   0   3   0   1   3   0   2   3   0   0   0   1   0   0   2   0   0   3   0  -1   3
    1       0.7  0.0  2.0  -10    6    9          10   0   0   0   0   1   0   0   2   0   0   3   0  -1   3   0  -2   3   0   0   0   1   0   0   2   0   0   3   0  -1   3
    4       0.7  0.0  2.0    9   -8   10          10   0   0   0   0   0   1   0   0   2   0   1   0   0   2   0   0   3   0   1   3   0   2   3   0   2   4   0   2   5   0
    6       0.7  0.0  2.0    9    7   -7          10   0   0   0   0   1   0   0   2   0   0   3   0   1   3   0   2   3   0   0   0   1   0   0   2   0   0   3   0  -1   3
    8       0.7  0.0  2.0   -6   -6    9          10   0   0   0   0   1   0   0   2   0   1   0   0   2   0   0   3   0   0   3  -1   0   3  -2   0   3  -2   1   3  -2   2
    7       0.7  0.0  2.0  -10   -7   -7          10   0   0   0   0   1   0   0   2   0   0   0   1   0   0   2   0   0   3  -1   0   3  -2   0   3  -2  -1   3  -2  -2   3
    8       0.7  0.0  2.0    6   -8   -7          10   0   0   0   0   1   0   0   2   0   1   0   0   2   0   0   3   0   0   3  -1   0   3  -2   0   3  -2   1   3  -2   2
    6       0.7  0.0  2.0   -7   -9    9          10   0   0   0   0   1   0   0   2   0   0   3   0   1   3   0   2   3   0   0   0   1   0   0   2   0   0   3   0  -1   3
    6       0.7  0.0  2.0    9    9   -8          10   0   0   0   0   1   0   0   2   0   0   3   0   1   3   0   2   3   0   0   0   1   0   0   2   0   0   3   0  -1   3
    4       0.7  0.0  2.0   -9   -6  -10          10   0   0   0   0   0   1   0   0   2   0   1   0   0   2   0   0   3   0   1   3   0   2   3   0   2   4   0   2   5   0
    6       0.7  0.0  2.0   -7   -7   -7          10   0   0   0   0   1   0   0   2   0   0   3   0   1   3   0   2   3   0   0   0   1   0   0   2   0   0   3   0  -1   3
    1       0.7  0.0  2.0    6    7   -9          10   0   0   0   0   1   0   0   2   0   0   3   0  -1   3   0  -2   3   0   0   0   1   0   0   2   0   0   3   0  -1   3
    6       0.7  0.0  2.0    6   10   10          10   0   0   0   0   1   0   0   2   0   0   3   0   1   3   0   2   3   0   0   0   1   0   0   2   0   0   3   0  -1   3
    5       0.7  0.0  2.0    7    8  -10          10   0   0   0   0   1   0   0   2   0   0   3   0  -1   3   0  -2   3   0   0   0   1   0   0   2   0   0   3   1   0   3
    8       0.7  0.0  2.0   -8   -6   -8          10   0   0   0   0   1   0   0   2   0   1   0   0   2   0   0   3   0   0   3  -1   0   3  -2   0   3  -2   1   3  -2   2
    0       0.7  0.0  2.0    8   10   -6          10   1   1   1   1   2   1   1   3   1   1   4   1   2   4   1   3   4   1   1   1   2   1   1   3   1   1   4   0   1   4
    4       0.7  0.0  2.0   -8    7   10          10   0   0   0   0   0   1   0   0   2   0   1   0   0   2   0   0   3   0   1   3   0   2   3   0   2   4   0   2   5   0
    1       0.7  0.0  2.0    6   -8   -6          10   0   0   0   0   1   0   0   2   0   0   3   0  -1   3   0  -2   3   0   0   0   1   0   0   2   0   0   3   0  -1   3
    0       0.7  0.0  2.0   -8    8   -9          10   1   1   1   1   2   1   1   3   1   1   4   1   2   4   1   3   4   1   1   1   2   1   1   3   1   1   4   0   1   4
    9       0.7  0.0  2.0    7    9    6          10   0   0   0   0   0  -1   0   0  -2   0   1   0   0   2   0   0   3   0   1   3   0   2   3   0   2   4   0   2   5   0
    1       0.7  0.0  2.0    8   10    8          10   0   0   0   0   1   0   0   2   0   0   3   0  -1   3   0  -2   3   0   0   0   1   0   0   2   0   0   3   0  -1   3
    9       0.7  0.0  2.0    7   -9   -6          10   0   0   0   0   0  -1   0   0  -2   0   1   0   0   2   0   0   3   0   1   3   0   2   3   0   2   4   0   2   5   0
    3       0.7  0.0  2.0   -7    8  -10          10   0   0   0   0   1   0   0   2   0   1   0   0   2   0   0   3   0   0   3  -1   0   3  -2   0   3  -2  -1   3  -2  -2
    1       0.7  0.0  2.0   -9    8    6          10   0   0   0   0   1   0   0   2   0   0   3   0  -1   3   0  -2   3   0   0   0   1   0   0   2   0   0   3   0  -1   3
    8       0.7  0.0  2.0   -7   -6   -9          10   0   0   0   0   1   0   0   2   0   1   0   0   2   0   0   3   0   0   3  -1   0   3  -2   0   3  -2   1   3  -2   2
    9       0.7  0.0  2.0   -6   -6  -10          10   0   0   0   0   0  -1   0   0  -2   0   1   0   0   2   0   0   3   0   1   3   0   2   3   0   2   4   0   2   5   0
    8       0.7  0.0  2.0    6    8   10          10   0   0   0   0   1   0   0   2   0   1   0   0   2   0   0   3   0   0   3  -1   0   3  -2   0   3  -2   1   3  -2   2
    7       0.7  0.0  2.0   -9  -10   -9          10   0   0   0   0   1   0   0   2   0   0   0   1   0   0   2   0   0   3  -1   0   3  -2   0   3  -2  -1   3  -2  -2   3
    3       0.7  0.0  2.0    6   -7   10          10   0   0   0   0   1   0   0   2   0   1   0   0   2   0   0   3   0   0   3  -1   0   3  -2   0   3  -2  -1   3  -2  -2
    1       0.7  0.0  2.0   -6    6   -7          10   0   0   0   0   1   0   0   2   0   0   3   0  -1   3   0  -2   3   0   0   0   1   0   0   2   0   0   3   0  -1   3
    4       0.7  0.0  2.0    7    8    9          10   0   0   0   0   0   1   0   0   2   0   1   0   0   2   0   0   3   0   1   3   0   2   3   0   2   4   0   2   5   0
    9       0.7  0.0  2.0   10    7   10          10   0   0   0   0   0  -1   0   0  -2   0   1   0   0   2   0   0   3   0   1   3   0   2   3   0   2   4   0   2   5   0
    6       0.7  0.0  2.0    9    9    9          10   0   0   0   0   1   0   0   2   0   0   3   0   1   3   0   2   3   0   0   0   1   0   0   2   0   0   3   0  -1   3
    0       0.7  0.0  2.0    8  -10  -10          10   1   1   1   1   2   1   1   3   1   1   4   1   2   4   1   3   4   1   1   1   2   1   1   3   1   1   4   0   1   4
    3       0.7  0.0  2.0   -8  -10    7          10   0   0   0   0   1   0   0   2   0   1   0   0   2   0   0   3   0   0   3  -1   0   3  -2   0   3  -2  -1   3  -2  -2
    0       0.7  0.0  2.0    6  -10   -7          10   1   1   1   1   2   1   1   3   1   1   4   1   2   4   1   3   4   1   1   1   2   1   1   3   1   1   4   0   1   4
    4       0.7  0.0  2.0   10   -6   -6          10   0   0   0   0   0   1   0   0   2   0   1   0   0   2   0   0   3   0   1   3   0   2   3   0   2   4   0   2   5   0
    3       0.7  0.0  2.0    7    9    8          10   0   0   0   0   1   0   0   2   0   1   0   0   2   0   0   3   0   0   3  -1   0   3  -2   0   3  -2  -1   3  -2  -2
    9       0.7  0.0  2.0   -8    6    9          10   0   0   0   0   0  -1   0   0  -2   0   1   0   0   2   0   0   3   0   1   3   0   2   3   0   2   4   0   2   5   0
    5       0.7  0.0  2.0    7   -9   -7          10   0   0   0   0   1   0   0   2   0   0   3   0  -1   3   0  -2   3   0   0   0   1   0   0   2   0   0   3   1   0   3
    8       0.7  0.0  2.0   -9    7   -6          10   0   0   0   0   1   0   0   2   0   1   0   0   2   0   0   3   0   0   3  -1   0   3  -2   0   3  -2   1   3  -2   2
    4       0.7  0.0  2.0  -10   -9   -9          10   0   0   0   0   0   1   0   0   2   0   1   0   0   2   0   0   3   0   1   3   0   2   3   0   2   4   0   2   5   0
    5       0.7  0.0  2.0   -7    8   -9          10   0   0   0   0   1   0   0   2   0   0   3   0  -1   3   0  -2   3   0   0   0   1   0   0   2   0   0   3   1   0   3
    1       0.7  0.0  2.0   -9    9   10          10   0   0   0   0   1   0   0   2   0   0   3   0  -1   3   0  -2   3   0   0   0   1   0   0   2   0   0   3   0  -1   3
    0       0.7  0.0  2.0   -6    7   -6          10   1   1   1   1   2   1   1   3   1   1   4   1   2   4   1   3   4   1   1   1   2   1   1   3   1   1   4   0   1   4
    6       0.7  0.0  2.0  -10    9    8          10   0   0   0   0   1   0   0   2   0   0   3   0   1   3   0   2   3   0   0   0   1   0   0   2   0   0   3   0  -1   3
    7       0.7  0.0  2.0    7  -10   -8          10   0   0   0   0   1   0   0   2   0   0   0   1   0   0   2   0   0   3  -1   0   3  -2   0   3  -2  -1   3  -2  -2   3
    7       0.7  0.0  2.0   10   -8   -7          10   0   0   0   0   1   0   0   2   0   0   0   1   0   0   2   0   0   3  -1   0   3  -2   0   3  -2  -1   3  -2  -2   3
    2       0.7  0.0  2.0   -8   -6   10          10   0   0   0   0   1   0   0   2   0   0   0   1   0   0   2   0   0   3   1   0   3   2   0   3   2  -1   3   2  -2   3
    2       0.7  0.0  2.0    6  -10    6          10   0   0   0   0   1   0   0   2   0   0   0   1   0   0   2   0   0   3   1   0   3   2   0   3   2  -1   3   2  -2   3
    5       0.7  0.0  2.0    8    7    7          10   0   0   0   0   1   0   0   2   0   0   3   0  -1   3   0  -2   3   0   0   0   1   0   0   2   0   0   3   1   0   3
    5       0.7  0.0  2.0    8    7   -8          10   0   0   0   0   1   0   0   2   0   0   3   0  -1   3   0  -2   3   0   0   0   1   0   0   2   0   0   3   1   0   3
