trial No, Begin Time(Sec), Decision Time(Sec),Target ID, Target RX, Target RY, Target RZ, Target Orignial RY,Test ID,   Test RX,   Test RY,   Test RZ, Test Orignial RY,Correct Answer, User Answer
0,0.00,0.70,4,-8.00,144.00,7.00, 135,4,6.00, -9.00, 10.00,0,Same,Same
1,1.70,2.18,0,-10.00,280.00,9.00, 270,0,10.00, 8.00, -7.00,0,Same,Same
2,3.20,3.74,4,10.00,232.00,-9.00, 225,9,7.00, -7.00, -6.00,0,Diff,Same
3,4.75,6.08,2,9.00,96.00,10.00, 90,2,-7.00, -8.00, -10.00,0,Same,Same
4,7.10,7.71,3,-8.00,325.00,-6.00, 315,3,-10.00, 6.00, -7.00,0,Same,Same
