trial No, Time(Sec),  X, Y, Z
0,0.064,6.00, 351.00, 10.00
0,0.122,6.00, 351.00, 10.00
0,0.170,6.00, 351.00, 10.00
0,0.216,6.00, 351.00, 10.00
0,0.262,6.00, 351.00, 10.00
0,0.343,6.00, 351.00, 10.00
0,0.394,6.00, 351.00, 10.00
0,0.450,6.00, 351.00, 10.00
0,0.496,6.00, 351.00, 10.00
0,0.543,6.00, 351.00, 10.00
0,0.591,6.00, 351.00, 10.00
0,0.638,6.00, 351.00, 10.00
0,0.684,6.00, 351.00, 10.00
0,0.731,6.00, 351.00, 10.00
0,0.777,6.00, 351.00, 10.00
0,0.825,6.00, 351.00, 10.00
0,0.872,6.00, 351.00, 10.00
0,0.919,6.00, 351.00, 10.00
0,0.964,6.00, 351.00, 10.00
0,1.011,6.00, 351.00, 10.00
0,1.059,6.00, 351.00, 10.00
0,1.106,6.00, 351.00, 10.00
0,1.152,6.00, 351.00, 10.00
0,1.198,6.00, 351.00, 10.00
0,1.245,6.00, 351.00, 10.00
0,1.292,6.00, 351.00, 10.00
0,1.340,6.00, 351.00, 10.00
0,1.386,6.00, 351.00, 10.00
0,1.432,6.00, 351.00, 10.00
0,1.479,6.00, 351.00, 10.00
0,1.577,6.00, 351.00, 10.00
0,1.639,6.00, 351.00, 10.00
0,1.702,6.00, 351.00, 10.00
0,1.760,6.00, 351.00, 10.00
0,1.808,6.00, 351.00, 10.00
0,1.856,6.00, 351.00, 10.00
0,1.901,6.00, 351.00, 10.00
0,1.947,6.00, 351.00, 10.00
0,1.994,6.00, 351.00, 10.00
0,2.041,6.00, 351.00, 10.00
0,2.089,6.00, 351.00, 10.00
0,2.134,6.00, 351.00, 10.00
0,2.181,6.00, 351.00, 10.00
0,2.229,6.00, 351.00, 10.00
0,2.275,6.00, 351.00, 10.00
0,2.323,6.00, 351.00, 10.00
0,2.369,6.00, 351.00, 10.00
0,2.415,6.00, 351.00, 10.00
0,2.463,6.00, 351.00, 10.00
0,2.509,6.00, 351.00, 10.00
0,2.557,6.00, 351.00, 10.00
0,2.602,6.00, 351.00, 10.00
0,2.649,6.00, 351.00, 10.00
0,2.696,6.00, 351.00, 10.00
0,2.744,6.00, 351.00, 10.00
0,2.830,6.00, 351.00, 10.00
0,2.883,6.00, 351.00, 10.00
0,2.931,6.00, 351.00, 10.00
0,2.977,6.00, 351.00, 10.00
0,3.024,6.00, 351.00, 10.00
0,3.071,6.00, 351.00, 10.00
0,3.117,6.00, 351.00, 10.00
0,3.164,6.00, 351.00, 10.00
0,3.212,6.00, 351.00, 10.00
0,3.258,6.00, 351.00, 10.00
0,3.304,6.00, 351.00, 10.00
0,3.352,6.00, 351.00, 10.00
0,3.398,6.00, 351.00, 10.00
0,3.446,6.00, 351.00, 10.00
0,3.492,6.00, 351.00, 10.00
0,3.539,6.00, 351.00, 10.00
0,3.585,6.00, 351.00, 10.00
0,3.633,6.00, 351.00, 10.00
0,3.680,6.00, 351.00, 10.00
0,3.726,6.00, 351.00, 10.00
0,3.772,6.00, 351.00, 10.00
0,3.821,6.00, 351.00, 10.00
0,3.866,6.00, 351.00, 10.00
0,3.913,6.00, 351.00, 10.00
0,3.960,6.00, 351.00, 10.00
0,4.006,6.00, 351.00, 10.00
0,4.091,6.00, 351.00, 10.00
0,4.149,6.00, 351.00, 10.00
0,4.194,6.00, 351.00, 10.00
0,4.241,6.00, 351.00, 10.00
0,4.287,6.00, 351.00, 10.00
0,4.334,6.00, 351.00, 10.00
0,4.382,6.00, 351.00, 10.00
0,4.428,6.00, 351.00, 10.00
0,4.475,6.00, 351.00, 10.00
0,4.522,6.00, 351.00, 10.00
0,4.568,6.00, 351.00, 10.00
0,4.615,6.00, 351.00, 10.00
0,4.662,6.00, 351.00, 10.00
0,4.708,6.00, 351.00, 10.00
0,4.756,6.00, 351.00, 10.00
0,4.803,6.00, 351.00, 10.00
0,4.850,6.00, 351.00, 10.00
0,4.896,6.00, 351.00, 10.00
0,4.943,6.00, 351.00, 10.00
0,4.989,6.00, 351.00, 10.00
0,5.036,6.00, 351.00, 10.00
0,5.084,6.00, 351.00, 10.00
0,5.131,6.00, 351.00, 10.00
0,5.177,6.00, 351.00, 10.00
0,5.223,6.00, 351.00, 10.00
0,5.271,6.00, 351.00, 10.00
0,5.318,6.00, 351.00, 10.00
0,5.365,6.00, 351.00, 10.00
0,5.426,6.00, 351.00, 10.00
0,5.477,6.00, 351.00, 10.00
0,5.522,6.00, 351.00, 10.00
0,5.570,6.00, 351.00, 10.00
0,5.632,6.00, 351.00, 10.00
0,5.682,6.00, 351.00, 10.00
0,5.729,6.00, 351.00, 10.00
0,5.776,6.00, 351.00, 10.00
0,5.824,6.00, 351.00, 10.00
0,5.880,6.00, 351.00, 10.00
0,5.925,6.00, 351.00, 10.00
0,5.972,6.00, 351.00, 10.00
0,6.020,6.00, 351.00, 10.00
0,6.081,6.00, 351.00, 10.00
0,6.128,6.00, 351.00, 10.00
0,6.205,6.00, 351.00, 10.00
0,6.253,6.00, 351.00, 10.00
0,6.299,6.00, 351.00, 10.00
0,6.349,6.00, 351.00, 10.00
0,6.411,6.00, 351.00, 10.00
0,6.458,6.00, 351.00, 10.00
0,6.506,6.00, 351.00, 10.00
0,6.569,6.00, 351.00, 10.00
0,6.614,6.00, 351.00, 10.00
0,6.674,6.00, 351.00, 10.00
0,6.722,6.00, 351.00, 10.00
0,6.768,6.00, 351.00, 10.00
0,6.814,6.00, 351.00, 10.00
0,6.862,6.00, 351.00, 10.00
0,6.908,6.00, 351.00, 10.00
0,6.955,6.00, 351.00, 10.00
0,7.001,6.00, 351.00, 10.00
0,7.066,6.00, 351.00, 10.00
