trial No, Time(Sec),  X, Y, Z
0,0.059,342.00, 241.00, 334.00
0,0.105,342.00, 241.00, 334.00
0,0.152,342.00, 241.00, 334.00
0,0.199,342.00, 241.00, 334.00
0,0.246,342.00, 241.00, 334.00
0,0.292,342.00, 241.00, 334.00
0,0.339,342.00, 241.00, 334.00
0,0.387,342.00, 241.00, 334.00
0,0.433,342.00, 241.00, 334.00
0,0.479,342.00, 241.00, 334.00
0,0.527,342.00, 241.00, 334.00
0,0.574,342.00, 241.00, 334.00
0,0.620,342.00, 241.00, 334.00
0,0.667,342.00, 241.00, 334.00
0,0.714,342.00, 241.00, 334.00
0,0.762,342.00, 241.00, 334.00
0,0.808,342.00, 241.00, 334.00
0,0.854,342.00, 241.00, 334.00
0,0.901,342.00, 241.00, 334.00
0,0.948,342.00, 241.00, 334.00
0,0.994,342.00, 241.00, 334.00
0,1.041,342.00, 241.00, 334.00
0,1.089,342.00, 241.00, 334.00
0,1.135,342.00, 241.00, 334.00
0,1.182,342.00, 241.00, 334.00
0,1.228,342.00, 241.00, 334.00
0,1.275,342.00, 241.00, 334.00
0,1.323,342.00, 241.00, 334.00
0,1.369,342.00, 241.00, 334.00
0,1.417,342.00, 241.00, 334.00
0,1.462,342.00, 241.00, 334.00
0,1.510,342.00, 241.00, 334.00
0,1.557,342.00, 241.00, 334.00
0,1.603,342.00, 241.00, 334.00
0,1.649,342.00, 241.00, 334.00
0,1.697,342.00, 241.00, 334.00
0,1.743,342.00, 241.00, 334.00
0,1.792,342.00, 241.00, 334.00
0,1.837,342.00, 241.00, 334.00
0,1.884,342.00, 241.00, 334.00
0,1.930,342.00, 241.00, 334.00
0,1.977,342.00, 241.00, 334.00
0,2.024,342.00, 241.00, 334.00
0,2.071,342.00, 241.00, 334.00
0,2.118,342.00, 241.00, 334.00
0,2.165,342.00, 241.00, 334.00
0,2.211,342.00, 241.00, 334.00
0,2.258,342.00, 241.00, 334.00
0,2.305,342.00, 241.00, 334.00
0,2.352,342.00, 241.00, 334.00
0,2.398,342.00, 241.00, 334.00
0,2.446,342.00, 241.00, 334.00
0,2.493,342.00, 241.00, 334.00
0,2.539,342.00, 241.00, 334.00
0,2.585,342.00, 241.00, 334.00
0,2.633,342.00, 241.00, 334.00
0,2.679,342.00, 241.00, 334.00
0,2.727,342.00, 241.00, 334.00
0,2.774,342.00, 241.00, 334.00
0,2.819,342.00, 241.00, 334.00
0,2.868,342.00, 241.00, 334.00
0,2.914,342.00, 241.00, 334.00
0,2.960,342.00, 241.00, 334.00
0,3.007,342.00, 241.00, 334.00
0,3.053,342.00, 241.00, 334.00
0,3.101,342.00, 241.00, 334.00
0,3.147,342.00, 241.00, 334.00
0,3.194,342.00, 241.00, 334.00
0,3.241,342.00, 241.00, 334.00
0,3.298,342.00, 241.00, 334.00
0,3.350,342.00, 241.00, 334.00
0,3.402,342.00, 241.00, 334.00
0,3.459,342.00, 241.00, 334.00
0,3.506,342.00, 241.00, 334.00
0,3.554,342.00, 241.00, 334.00
0,3.604,342.00, 241.00, 334.00
0,3.655,342.00, 241.00, 334.00
0,3.708,342.00, 241.00, 334.00
0,3.757,342.00, 241.00, 334.00
0,3.802,342.00, 241.00, 334.00
0,3.850,342.00, 241.00, 334.00
0,3.897,342.00, 241.00, 334.00
0,3.942,342.00, 241.00, 334.00
0,3.990,342.00, 241.00, 334.00
0,4.037,342.00, 241.00, 334.00
0,4.083,342.00, 241.00, 334.00
0,4.131,342.00, 241.00, 334.00
0,4.176,342.00, 241.00, 334.00
0,4.224,342.00, 241.00, 334.00
0,4.271,342.00, 241.00, 334.00
0,4.317,342.00, 241.00, 334.00
0,4.364,342.00, 241.00, 334.00
0,4.410,342.00, 241.00, 334.00
0,4.459,342.00, 241.00, 334.00
0,4.504,342.00, 241.00, 334.00
0,4.552,342.00, 241.00, 334.00
0,4.598,342.00, 241.00, 334.00
0,4.644,342.00, 241.00, 334.00
0,4.690,342.00, 241.00, 334.00
0,4.739,342.00, 241.00, 334.00
0,4.786,342.00, 241.00, 334.00
0,4.832,342.00, 241.00, 334.00
0,4.878,342.00, 241.00, 334.00
0,4.928,342.00, 241.00, 334.00
0,4.973,342.00, 241.00, 334.00
0,5.020,342.00, 241.00, 334.00
0,5.067,342.00, 241.00, 334.00
0,5.112,342.00, 241.00, 334.00
0,5.160,342.00, 241.00, 334.00
0,5.211,342.00, 241.00, 334.00
0,5.273,342.00, 241.00, 334.00
0,5.335,342.00, 241.00, 334.00
0,5.394,342.00, 241.00, 334.00
0,5.440,342.00, 241.00, 334.00
0,5.489,342.00, 241.00, 334.00
0,5.537,342.00, 241.00, 334.00
0,5.601,342.00, 241.00, 334.00
0,5.661,342.00, 241.00, 334.00
0,5.709,342.00, 241.00, 334.00
0,5.768,342.00, 241.00, 334.00
0,5.814,342.00, 241.00, 334.00
0,5.862,342.00, 241.00, 334.00
0,5.908,342.00, 241.00, 334.00
0,5.956,342.00, 241.00, 334.00
0,6.004,342.00, 241.00, 334.00
0,6.069,342.00, 241.00, 334.00
0,6.115,342.00, 241.00, 334.00
0,6.161,342.00, 241.00, 334.00
0,6.209,342.00, 241.00, 334.00
0,6.271,342.00, 241.00, 334.00
0,6.322,342.00, 241.00, 334.00
0,6.376,342.00, 241.00, 334.00
0,6.424,342.00, 241.00, 334.00
0,6.471,342.00, 241.00, 334.00
0,6.517,342.00, 241.00, 334.00
0,6.564,342.00, 241.00, 334.00
0,6.611,342.00, 241.00, 334.00
0,6.657,342.00, 241.00, 334.00
0,6.704,342.00, 241.00, 334.00
0,6.751,342.00, 241.00, 334.00
0,6.798,342.00, 241.00, 334.00
0,6.845,342.00, 241.00, 334.00
0,6.891,342.00, 241.00, 334.00
0,6.939,342.00, 241.00, 334.00
0,6.984,342.00, 241.00, 334.00
0,7.031,342.00, 241.00, 334.00
0,7.079,342.00, 241.00, 334.00
0,7.126,342.00, 241.00, 334.00
0,7.174,342.00, 241.00, 334.00
0,7.220,342.00, 241.00, 334.00
0,7.265,342.00, 241.00, 334.00
0,7.312,342.00, 241.00, 334.00
0,7.359,342.00, 241.00, 334.00
0,7.407,342.00, 241.00, 334.00
0,7.453,342.00, 241.00, 334.00
0,7.500,342.00, 241.00, 334.00
0,7.547,342.00, 241.00, 334.00
0,7.594,342.00, 241.00, 334.00
0,7.639,342.00, 241.00, 334.00
0,7.688,342.00, 241.00, 334.00
0,7.750,342.00, 241.00, 334.00
0,7.800,342.00, 241.00, 334.00
0,7.864,342.00, 241.00, 334.00
0,7.912,342.00, 241.00, 334.00
0,7.968,342.00, 241.00, 334.00
0,8.016,342.00, 241.00, 334.00
0,8.063,342.00, 241.00, 334.00
0,8.109,342.00, 241.00, 334.00
0,8.155,342.00, 241.00, 334.00
0,8.201,342.00, 241.00, 334.00
0,8.248,342.00, 241.00, 334.00
0,8.296,342.00, 241.00, 334.00
0,8.341,342.00, 241.00, 334.00
0,8.389,342.00, 241.00, 334.00
0,8.436,342.00, 241.00, 334.00
0,8.484,342.00, 241.00, 334.00
0,8.530,342.00, 241.00, 334.00
0,8.576,342.00, 241.00, 334.00
0,8.623,342.00, 241.00, 334.00
0,8.670,342.00, 241.00, 334.00
0,8.718,342.00, 241.00, 334.00
0,8.764,342.00, 241.00, 334.00
0,8.811,342.00, 241.00, 334.00
0,8.856,342.00, 241.00, 334.00
0,8.903,342.00, 241.00, 334.00
0,8.951,342.00, 241.00, 334.00
0,8.999,342.00, 241.00, 334.00
0,9.044,342.00, 241.00, 334.00
0,9.092,342.00, 241.00, 334.00
0,9.138,342.00, 241.00, 334.00
0,9.185,342.00, 241.00, 334.00
0,9.231,342.00, 241.00, 334.00
0,9.279,342.00, 241.00, 334.00
0,9.325,342.00, 241.00, 334.00
0,9.371,342.00, 241.00, 334.00
0,9.419,342.00, 241.00, 334.00
0,9.465,342.00, 241.00, 334.00
0,9.511,342.00, 241.00, 334.00
0,9.559,342.00, 241.00, 334.00
0,9.605,342.00, 241.00, 334.00
0,9.653,342.00, 241.00, 334.00
0,9.700,342.00, 241.00, 334.00
0,9.745,342.00, 241.00, 334.00
0,9.793,342.00, 241.00, 334.00
0,9.839,342.00, 241.00, 334.00
0,9.887,342.00, 241.00, 334.00
0,9.934,342.00, 241.00, 334.00
0,9.981,342.00, 241.00, 334.00
0,10.028,342.00, 241.00, 334.00
0,10.074,342.00, 241.00, 334.00
0,10.121,342.00, 241.00, 334.00
0,10.169,342.00, 241.00, 334.00
0,10.214,342.00, 241.00, 334.00
0,10.260,342.00, 241.00, 334.00
0,10.308,342.00, 241.00, 334.00
0,10.356,342.00, 241.00, 334.00
0,10.402,342.00, 241.00, 334.00
0,10.448,342.00, 241.00, 334.00
0,10.495,342.00, 241.00, 334.00
0,10.542,342.00, 241.00, 334.00
0,10.590,342.00, 241.00, 334.00
0,10.637,342.00, 241.00, 334.00
0,10.683,342.00, 241.00, 334.00
0,10.729,342.00, 241.00, 334.00
0,10.776,342.00, 241.00, 334.00
0,10.823,342.00, 241.00, 334.00
0,10.871,342.00, 241.00, 334.00
0,10.917,342.00, 241.00, 334.00
0,10.963,342.00, 241.00, 334.00
0,11.010,342.00, 241.00, 334.00
0,11.057,342.00, 241.00, 334.00
0,11.104,342.00, 241.00, 334.00
0,11.150,342.00, 241.00, 334.00
0,11.198,342.00, 241.00, 334.00
0,11.244,342.00, 241.00, 334.00
0,11.292,342.00, 241.00, 334.00
0,11.339,342.00, 241.00, 334.00
0,11.385,342.00, 241.00, 334.00
0,11.431,342.00, 241.00, 334.00
0,11.478,342.00, 241.00, 334.00
0,11.525,342.00, 241.00, 334.00
0,11.572,342.00, 241.00, 334.00
0,11.619,342.00, 241.00, 334.00
0,11.666,342.00, 241.00, 334.00
0,11.712,342.00, 241.00, 334.00
0,11.759,342.00, 241.00, 334.00
0,11.805,342.00, 241.00, 334.00
0,11.853,342.00, 241.00, 334.00
0,11.898,342.00, 241.00, 334.00
0,11.946,342.00, 241.00, 334.00
0,11.993,342.00, 241.00, 334.00
0,12.039,342.00, 241.00, 334.00
0,12.087,342.00, 241.00, 334.00
0,12.134,342.00, 241.00, 334.00
0,12.180,342.00, 241.00, 334.00
0,12.228,342.00, 241.00, 334.00
0,12.274,342.00, 241.00, 334.00
0,12.320,342.00, 241.00, 334.00
0,12.368,342.00, 241.00, 334.00
0,12.414,342.00, 241.00, 334.00
0,12.462,342.00, 241.00, 334.00
0,12.507,342.00, 241.00, 334.00
0,12.555,342.00, 241.00, 334.00
0,12.601,342.00, 241.00, 334.00
0,12.648,342.00, 241.00, 334.00
0,12.695,342.00, 241.00, 334.00
0,12.742,342.00, 241.00, 334.00
0,12.789,342.00, 241.00, 334.00
0,12.836,342.00, 241.00, 334.00
0,12.882,342.00, 241.00, 334.00
0,12.929,342.00, 241.00, 334.00
0,12.976,342.00, 241.00, 334.00
0,13.023,342.00, 241.00, 334.00
0,13.069,342.00, 241.00, 334.00
0,13.116,342.00, 241.00, 334.00
0,13.163,342.00, 241.00, 334.00
0,13.210,342.00, 241.00, 334.00
0,13.256,342.00, 241.00, 334.00
0,13.304,342.00, 241.00, 334.00
0,13.350,342.00, 241.00, 334.00
0,13.398,342.00, 241.00, 334.00
0,13.444,342.00, 241.00, 334.00
0,13.491,342.00, 241.00, 334.00
0,13.538,342.00, 241.00, 334.00
0,13.584,342.00, 241.00, 334.00
0,13.631,342.00, 241.00, 334.00
0,13.677,342.00, 241.00, 334.00
0,13.725,342.00, 241.00, 334.00
0,13.771,342.00, 241.00, 334.00
0,13.818,342.00, 241.00, 334.00
0,13.865,342.00, 241.00, 334.00
0,13.911,342.00, 241.00, 334.00
0,13.959,342.00, 241.00, 334.00
0,14.005,342.00, 241.00, 334.00
0,14.052,342.00, 241.00, 334.00
0,14.100,342.00, 241.00, 334.00
0,14.145,342.00, 241.00, 334.00
0,14.193,342.00, 241.00, 334.00
0,14.239,342.00, 241.00, 334.00
0,14.286,342.00, 241.00, 334.00
0,14.334,342.00, 241.00, 334.00
0,14.380,342.00, 241.00, 334.00
0,14.427,342.00, 241.00, 334.00
0,14.473,342.00, 241.00, 334.00
0,14.520,342.00, 241.00, 334.00
0,14.568,342.00, 241.00, 334.00
0,14.614,342.00, 241.00, 334.00
0,14.660,342.00, 241.00, 334.00
0,14.707,342.00, 241.00, 334.00
0,14.754,342.00, 241.00, 334.00
0,14.801,342.00, 241.00, 334.00
0,14.846,342.00, 241.00, 334.00
0,14.894,342.00, 241.00, 334.00
0,14.942,342.00, 241.00, 334.00
0,14.988,342.00, 241.00, 334.00
0,15.035,342.00, 241.00, 334.00
0,15.081,342.00, 241.00, 334.00
0,15.128,342.00, 241.00, 334.00
0,15.175,342.00, 241.00, 334.00
0,15.221,342.00, 241.00, 334.00
0,15.269,342.00, 241.00, 334.00
0,15.316,342.00, 241.00, 334.00
0,15.363,342.00, 241.00, 334.00
0,15.409,342.00, 241.00, 334.00
0,15.456,342.00, 241.00, 334.00
0,15.502,342.00, 241.00, 334.00
0,15.550,342.00, 241.00, 334.00
0,15.596,342.00, 241.00, 334.00
0,15.643,342.00, 241.00, 334.00
0,15.690,342.00, 241.00, 334.00
0,15.736,342.00, 241.00, 334.00
0,15.783,342.00, 241.00, 334.00
0,15.831,342.00, 241.00, 334.00
0,15.877,342.00, 241.00, 334.00
0,15.924,342.00, 241.00, 334.00
0,15.971,342.00, 241.00, 334.00
0,16.017,342.00, 241.00, 334.00
0,16.065,342.00, 241.00, 334.00
0,16.111,342.00, 241.00, 334.00
0,16.158,342.00, 241.00, 334.00
0,16.205,342.00, 241.00, 334.00
0,16.252,342.00, 241.00, 334.00
0,16.298,342.00, 241.00, 334.00
0,16.346,342.00, 241.00, 334.00
0,16.392,342.00, 241.00, 334.00
0,16.439,342.00, 241.00, 334.00
0,16.485,342.00, 241.00, 334.00
0,16.532,342.00, 241.00, 334.00
0,16.579,342.00, 241.00, 334.00
0,16.626,342.00, 241.00, 334.00
0,16.673,342.00, 241.00, 334.00
0,16.719,342.00, 241.00, 334.00
0,16.766,342.00, 241.00, 334.00
0,16.813,342.00, 241.00, 334.00
0,16.860,342.00, 241.00, 334.00
0,16.907,342.00, 241.00, 334.00
0,16.954,342.00, 241.00, 334.00
0,17.001,342.00, 241.00, 334.00
0,17.047,342.00, 241.00, 334.00
0,17.094,342.00, 241.00, 334.00
0,17.140,342.00, 241.00, 334.00
0,17.188,342.00, 241.00, 334.00
0,17.234,342.00, 241.00, 334.00
0,17.282,342.00, 241.00, 334.00
0,17.328,342.00, 241.00, 334.00
0,17.374,342.00, 241.00, 334.00
0,17.422,342.00, 241.00, 334.00
0,17.468,342.00, 241.00, 334.00
0,17.516,342.00, 241.00, 334.00
0,17.562,342.00, 241.00, 334.00
0,17.609,342.00, 241.00, 334.00
0,17.656,342.00, 241.00, 334.00
0,17.702,342.00, 241.00, 334.00
0,17.749,342.00, 241.00, 334.00
0,17.796,342.00, 241.00, 334.00
0,17.843,342.00, 241.00, 334.00
0,17.889,342.00, 241.00, 334.00
0,17.937,342.00, 241.00, 334.00
0,17.983,342.00, 241.00, 334.00
0,18.030,342.00, 241.00, 334.00
0,18.077,342.00, 241.00, 334.00
0,18.123,342.00, 241.00, 334.00
0,18.171,342.00, 241.00, 334.00
0,18.217,342.00, 241.00, 334.00
0,18.264,342.00, 241.00, 334.00
0,18.311,342.00, 241.00, 334.00
0,18.358,342.00, 241.00, 334.00
0,18.404,342.00, 241.00, 334.00
0,18.452,342.00, 241.00, 334.00
0,18.498,342.00, 241.00, 334.00
0,18.544,342.00, 241.00, 334.00
0,18.591,342.00, 241.00, 334.00
0,18.639,342.00, 241.00, 334.00
0,18.686,342.00, 241.00, 334.00
0,18.732,342.00, 241.00, 334.00
0,18.779,342.00, 241.00, 334.00
0,18.826,342.00, 241.00, 334.00
0,18.872,342.00, 241.00, 334.00
0,18.919,342.00, 241.00, 334.00
0,18.967,342.00, 241.00, 334.00
0,19.012,342.00, 241.00, 334.00
0,19.061,342.00, 241.00, 334.00
0,19.106,342.00, 241.00, 334.00
0,19.154,342.00, 241.00, 334.00
0,19.200,342.00, 241.00, 334.00
0,19.247,342.00, 241.00, 334.00
0,19.293,342.00, 241.00, 334.00
0,19.340,342.00, 241.00, 334.00
0,19.387,342.00, 241.00, 334.00
0,19.433,342.00, 241.00, 334.00
0,19.481,342.00, 241.00, 334.00
0,19.527,342.00, 241.00, 334.00
0,19.574,342.00, 241.00, 334.00
0,19.621,342.00, 241.00, 334.00
0,19.667,342.00, 241.00, 334.00
0,19.715,342.00, 241.00, 334.00
0,19.761,342.00, 241.00, 334.00
0,19.808,342.00, 241.00, 334.00
0,19.855,342.00, 241.00, 334.00
0,19.901,342.00, 241.00, 334.00
0,19.949,342.00, 241.00, 334.00
0,19.995,342.00, 241.00, 334.00
0,20.043,342.00, 241.00, 334.00
0,20.089,342.00, 241.00, 334.00
0,20.135,342.00, 241.00, 334.00
0,20.182,342.00, 241.00, 334.00
0,20.230,342.00, 241.00, 334.00
0,20.276,342.00, 241.00, 334.00
0,20.324,342.00, 241.00, 334.00
0,20.389,342.00, 241.00, 334.00
0,20.437,342.00, 241.00, 334.00
0,20.483,342.00, 241.00, 334.00
0,20.544,342.00, 241.00, 334.00
0,20.603,342.00, 241.00, 334.00
0,20.651,342.00, 241.00, 334.00
0,20.697,342.00, 241.00, 334.00
0,20.744,342.00, 241.00, 334.00
0,20.791,342.00, 241.00, 334.00
0,20.837,342.00, 241.00, 334.00
0,20.885,342.00, 241.00, 334.00
0,20.931,342.00, 241.00, 334.00
0,20.978,342.00, 241.00, 334.00
0,21.025,342.00, 241.00, 334.00
0,21.071,342.00, 241.00, 334.00
0,21.120,342.00, 241.00, 334.00
0,21.165,342.00, 241.00, 334.00
0,21.213,342.00, 241.00, 334.00
0,21.260,342.00, 241.00, 334.00
0,21.305,342.00, 241.00, 334.00
0,21.353,342.00, 241.00, 334.00
0,21.399,342.00, 241.00, 334.00
0,21.447,342.00, 241.00, 334.00
0,21.493,342.00, 241.00, 334.00
0,21.539,342.00, 241.00, 334.00
0,21.587,342.00, 241.00, 334.00
0,21.633,342.00, 241.00, 334.00
0,21.681,342.00, 241.00, 334.00
0,21.727,342.00, 241.00, 334.00
0,21.773,342.00, 241.00, 334.00
0,21.822,342.00, 241.00, 334.00
0,21.867,342.00, 241.00, 334.00
0,21.915,342.00, 241.00, 334.00
0,21.961,342.00, 241.00, 334.00
0,22.007,342.00, 241.00, 334.00
0,22.054,342.00, 241.00, 334.00
0,22.102,342.00, 241.00, 334.00
0,22.149,342.00, 241.00, 334.00
0,22.195,342.00, 241.00, 334.00
0,22.241,342.00, 241.00, 334.00
0,22.289,342.00, 241.00, 334.00
0,22.336,342.00, 241.00, 334.00
0,22.382,342.00, 241.00, 334.00
0,22.429,342.00, 241.00, 334.00
0,22.474,342.00, 241.00, 334.00
0,22.524,342.00, 241.00, 334.00
0,22.569,342.00, 241.00, 334.00
0,22.616,342.00, 241.00, 334.00
0,22.664,342.00, 241.00, 334.00
0,22.709,342.00, 241.00, 334.00
0,22.757,342.00, 241.00, 334.00
0,22.803,342.00, 241.00, 334.00
0,22.851,342.00, 241.00, 334.00
0,22.897,342.00, 241.00, 334.00
0,22.943,342.00, 241.00, 334.00
0,22.991,342.00, 241.00, 334.00
0,23.037,342.00, 241.00, 334.00
0,23.084,342.00, 241.00, 334.00
0,23.131,342.00, 241.00, 334.00
0,23.177,342.00, 241.00, 334.00
0,23.225,342.00, 241.00, 334.00
0,23.271,342.00, 241.00, 334.00
0,23.318,342.00, 241.00, 334.00
0,23.365,342.00, 241.00, 334.00
0,23.411,342.00, 241.00, 334.00
0,23.459,342.00, 241.00, 334.00
0,23.506,342.00, 241.00, 334.00
0,23.553,342.00, 241.00, 334.00
0,23.599,342.00, 241.00, 334.00
0,23.645,342.00, 241.00, 334.00
0,23.694,342.00, 241.00, 334.00
0,23.739,342.00, 241.00, 334.00
0,23.786,342.00, 241.00, 334.00
0,23.832,342.00, 241.00, 334.00
0,23.879,342.00, 241.00, 334.00
0,23.927,342.00, 241.00, 334.00
0,23.973,342.00, 241.00, 334.00
0,24.020,342.00, 241.00, 334.00
0,24.066,342.00, 241.00, 334.00
0,24.113,342.00, 241.00, 334.00
0,24.160,342.00, 241.00, 334.00
0,24.208,342.00, 241.00, 334.00
0,24.254,342.00, 241.00, 334.00
0,24.300,342.00, 241.00, 334.00
0,24.347,342.00, 241.00, 334.00
0,24.396,342.00, 241.00, 334.00
0,24.441,342.00, 241.00, 334.00
0,24.489,342.00, 241.00, 334.00
0,24.534,342.00, 241.00, 334.00
0,24.581,342.00, 241.00, 334.00
0,24.629,342.00, 241.00, 334.00
0,24.675,342.00, 241.00, 334.00
0,24.723,342.00, 241.00, 334.00
0,24.769,342.00, 241.00, 334.00
0,24.816,342.00, 241.00, 334.00
0,24.862,342.00, 241.00, 334.00
0,24.909,342.00, 241.00, 334.00
0,24.956,342.00, 241.00, 334.00
0,25.002,342.00, 241.00, 334.00
0,25.050,342.00, 241.00, 334.00
0,25.097,342.00, 241.00, 334.00
0,25.144,342.00, 241.00, 334.00
0,25.191,342.00, 241.00, 334.00
0,25.237,342.00, 241.00, 334.00
0,25.283,342.00, 241.00, 334.00
0,25.330,342.00, 241.00, 334.00
0,25.377,342.00, 241.00, 334.00
0,25.425,342.00, 241.00, 334.00
0,25.470,342.00, 241.00, 334.00
0,25.517,342.00, 241.00, 334.00
0,25.565,342.00, 241.00, 334.00
0,25.611,342.00, 241.00, 334.00
0,25.658,342.00, 241.00, 334.00
0,25.705,342.00, 241.00, 334.00
0,25.751,342.00, 241.00, 334.00
0,25.798,342.00, 241.00, 334.00
0,25.845,342.00, 241.00, 334.00
0,25.892,342.00, 241.00, 334.00
0,25.938,342.00, 241.00, 334.00
0,25.985,342.00, 241.00, 334.00
0,26.033,342.00, 241.00, 334.00
0,26.080,342.00, 241.00, 334.00
0,26.127,342.00, 241.00, 334.00
0,26.172,342.00, 241.00, 334.00
0,26.219,342.00, 241.00, 334.00
