trial No, Time(Sec),  X, Y, Z
0,0.058,6.00, 351.00, 10.00
0,0.104,6.00, 351.00, 10.00
0,0.151,6.00, 351.00, 10.00
0,0.198,6.00, 351.00, 10.00
0,0.244,6.00, 351.00, 10.00
0,0.292,6.00, 351.00, 10.00
0,0.338,6.00, 351.00, 10.00
0,0.385,6.00, 351.00, 10.00
0,0.434,6.00, 351.00, 10.00
0,0.479,6.00, 351.00, 10.00
0,0.525,6.00, 351.00, 10.00
0,0.573,6.00, 351.00, 10.00
0,0.619,6.00, 351.00, 10.00
0,0.667,6.00, 351.00, 10.00
0,0.713,6.00, 351.00, 10.00
0,0.760,6.00, 351.00, 10.00
0,0.806,6.00, 351.00, 10.00
0,0.853,6.00, 351.00, 10.00
0,0.900,6.00, 351.00, 10.00
0,0.946,6.00, 351.00, 10.00
0,0.994,6.00, 351.00, 10.00
0,1.040,6.00, 351.00, 10.00
0,1.087,6.00, 351.00, 10.00
0,1.135,6.00, 351.00, 10.00
0,1.181,6.00, 351.00, 10.00
0,1.228,6.00, 351.00, 10.00
0,1.275,6.00, 351.00, 10.00
0,1.321,6.00, 351.00, 10.00
0,1.368,6.00, 351.00, 10.00
0,1.414,6.00, 351.00, 10.00
0,1.462,6.00, 351.00, 10.00
0,1.508,6.00, 351.00, 10.00
0,1.556,6.00, 351.00, 10.00
0,1.603,6.00, 351.00, 10.00
0,1.649,6.00, 351.00, 10.00
0,1.695,6.00, 351.00, 10.00
0,1.743,6.00, 351.00, 10.00
0,1.789,6.00, 351.00, 10.00
0,1.836,6.00, 351.00, 10.00
0,1.883,6.00, 351.00, 10.00
0,1.929,6.00, 351.00, 10.00
0,1.976,6.00, 351.00, 10.00
0,2.023,6.00, 351.00, 10.00
0,2.071,6.00, 351.00, 10.00
0,2.116,6.00, 351.00, 10.00
0,2.164,6.00, 351.00, 10.00
0,2.211,6.00, 351.00, 10.00
0,2.257,6.00, 351.00, 10.00
0,2.304,6.00, 351.00, 10.00
0,2.351,6.00, 351.00, 10.00
0,2.397,6.00, 351.00, 10.00
0,2.445,6.00, 351.00, 10.00
0,2.491,6.00, 351.00, 10.00
0,2.538,6.00, 351.00, 10.00
0,2.584,6.00, 351.00, 10.00
0,2.631,6.00, 351.00, 10.00
0,2.679,6.00, 351.00, 10.00
0,2.726,6.00, 351.00, 10.00
0,2.771,6.00, 351.00, 10.00
0,2.819,6.00, 351.00, 10.00
0,2.867,6.00, 351.00, 10.00
0,2.912,6.00, 351.00, 10.00
0,2.959,6.00, 351.00, 10.00
0,3.006,6.00, 351.00, 10.00
0,3.052,6.00, 351.00, 10.00
0,3.100,6.00, 351.00, 10.00
0,3.147,6.00, 351.00, 10.00
0,3.194,6.00, 351.00, 10.00
0,3.239,6.00, 351.00, 10.00
0,3.286,6.00, 351.00, 10.00
0,3.334,6.00, 351.00, 10.00
0,3.380,6.00, 351.00, 10.00
0,3.427,6.00, 351.00, 10.00
0,3.474,6.00, 351.00, 10.00
0,3.522,6.00, 351.00, 10.00
0,3.568,6.00, 351.00, 10.00
0,3.615,6.00, 351.00, 10.00
0,3.661,6.00, 351.00, 10.00
0,3.708,6.00, 351.00, 10.00
0,3.755,6.00, 351.00, 10.00
0,3.803,6.00, 351.00, 10.00
0,3.848,6.00, 351.00, 10.00
0,3.895,6.00, 351.00, 10.00
0,3.941,6.00, 351.00, 10.00
0,3.989,6.00, 351.00, 10.00
0,4.035,6.00, 351.00, 10.00
0,4.084,6.00, 351.00, 10.00
0,4.129,6.00, 351.00, 10.00
0,4.177,6.00, 351.00, 10.00
0,4.222,6.00, 351.00, 10.00
0,4.269,6.00, 351.00, 10.00
0,4.317,6.00, 351.00, 10.00
0,4.363,6.00, 351.00, 10.00
0,4.409,6.00, 351.00, 10.00
